{
  "consumes": [
    "application/json"
  ],
  "produces": [
    "application/json"
  ],
  "schemes": [
    "http",
    "https"
  ],
  "swagger": "2.0",
  "info": {
    "description": "Documentación de la API",
    "title": "API Seguridad",
    "contact": {
      "url": "https://osmandi.now.sh"
    },
    "license": {
      "name": "MIT",
      "url": "http://opensource.org/licenses/MIT"
    },
    "version": "1.0"
  },
  "host": "localhost:3001",
  "basePath": "/api/seguridad",
  "paths": {
    "/usuarios": {
      "get": {
        "description": ".",
        "tags": [
          "usuarios"
        ],
        "summary": "Retorna una lista de usuarios",
        "operationId": "getUsuarios",
        "parameters": [
          {
            "type": "string",
            "default": "123456789",
            "description": "Identificador único de la petición",
            "name": "Request-Id",
            "in": "header",
            "required": true
          },
          {
            "type": "string",
            "default": "123-swagger",
            "description": "Identificador del consumidor",
            "name": "App-Id",
            "in": "header",
            "required": true
          },
          {
            "type": "string",
            "description": "Número de pagina",
            "name": "page[number]",
            "in": "path"
          },
          {
            "type": "string",
            "description": "Cantidad de registros por pagina",
            "name": "page[size]",
            "in": "path"
          },
          {
            "type": "string",
            "description": "ASC: sort=nombre, DESC: sort=-nombre",
            "name": "sort",
            "in": "path"
          },
          {
            "type": "string",
            "description": "Nombre de usuario",
            "name": "username",
            "in": "path"
          },
          {
            "type": "string",
            "description": "Id del estado",
            "name": "estadoId",
            "in": "path"
          },
          {
            "type": "string",
            "description": "Id de la persona",
            "name": "personaId",
            "in": "path"
          },
          {
            "type": "string",
            "description": "Id del rol",
            "name": "rol",
            "in": "path"
          }
        ],
        "responses": {
          "200": {
            "description": "OK",
            "schema": {
              "type": "array",
              "items": {
                "$ref": "#/definitions/Usuario"
              }
            }
          },
          "401": {
            "description": "Token invalido"
          },
          "403": {
            "description": "Acceso denegado o permisos insuficientes"
          },
          "404": {
            "description": "usuario not found"
          },
          "500": {
            "description": "Internal server error"
          }
        }
      },
      "put": {
        "description": ".",
        "tags": [
          "usuarios"
        ],
        "summary": "Actualiza un usuario",
        "operationId": "updateUsuario",
        "parameters": [
          {
            "type": "string",
            "description": "Access token",
            "name": "Authorization",
            "in": "header",
            "required": true
          },
          {
            "type": "string",
            "default": "123456789",
            "description": "Identificador único de la petición",
            "name": "Request-Id",
            "in": "header",
            "required": true
          },
          {
            "type": "string",
            "default": "123-swagger",
            "description": "Identificador del consumidor",
            "name": "App-Id",
            "in": "header",
            "required": true
          },
          {
            "type": "string",
            "description": "Id del usuario a actualizar",
            "name": "id",
            "in": "path",
            "required": true
          },
          {
            "name": "Body",
            "in": "Body",
            "required": true,
            "schema": {
              "$ref": "#/definitions/Usuario"
            }
          }
        ],
        "responses": {
          "200": {
            "description": "Created",
            "schema": {
              "$ref": "#/definitions/Usuario"
            }
          },
          "400": {
            "description": "Bad request"
          },
          "401": {
            "description": "Token invalido"
          },
          "403": {
            "description": "Acceso denegado o permisos insuficientes"
          },
          "404": {
            "description": "Usuario not found"
          },
          "500": {
            "description": "Internal server error"
          }
        }
      },
      "post": {
        "description": ".",
        "tags": [
          "usuarios"
        ],
        "summary": "Agrega un usuario",
        "operationId": "addUsuario",
        "parameters": [
          {
            "type": "string",
            "description": "Access token",
            "name": "Authorization",
            "in": "header",
            "required": true
          },
          {
            "type": "string",
            "default": "123456789",
            "description": "Identificador único de la petición",
            "name": "Request-Id",
            "in": "header",
            "required": true
          },
          {
            "type": "string",
            "default": "123-swagger",
            "description": "Identificador del consumidor",
            "name": "App-Id",
            "in": "header",
            "required": true
          },
          {
            "name": "Body",
            "in": "Body",
            "required": true,
            "schema": {
              "$ref": "#/definitions/Usuario"
            }
          }
        ],
        "responses": {
          "201": {
            "description": "Created",
            "schema": {
              "$ref": "#/definitions/Usuario"
            }
          },
          "400": {
            "description": "Bad request"
          },
          "401": {
            "description": "Token invalido"
          },
          "403": {
            "description": "Acceso denegado o permisos insuficientes"
          },
          "409": {
            "description": "Conflict - Ya existe un usuario con el mismo 'username'"
          },
          "500": {
            "description": "Internal server error"
          }
        }
      },
      "delete": {
        "description": ".",
        "tags": [
          "usuarios"
        ],
        "summary": "Elimina un usuario",
        "operationId": "deleteUsuario",
        "parameters": [
          {
            "type": "string",
            "description": "Access token",
            "name": "Authorization",
            "in": "header",
            "required": true
          },
          {
            "type": "string",
            "default": "123456789",
            "description": "Identificador único de la petición",
            "name": "Request-Id",
            "in": "header",
            "required": true
          },
          {
            "type": "string",
            "default": "123-swagger",
            "description": "Identificador del consumidor",
            "name": "App-Id",
            "in": "header",
            "required": true
          },
          {
            "type": "string",
            "description": "Id del usuario a actualizar",
            "name": "id",
            "in": "path",
            "required": true
          }
        ],
        "responses": {
          "200": {
            "description": "Created",
            "schema": {
              "$ref": "#/definitions/Usuario"
            }
          },
          "204": {
            "description": "No se encontro el registro a eliminar"
          },
          "401": {
            "description": "Token invalido"
          },
          "403": {
            "description": "Acceso denegado o permisos insuficientes"
          },
          "500": {
            "description": "Internal server error"
          }
        }
      }
    },
    "/usuarios/cambiarContrasena": {
      "post": {
        "description": ".",
        "tags": [
          "usuarios"
        ],
        "summary": "Cambia la contraseña de un usuario",
        "operationId": "cambiarContrasena",
        "parameters": [
          {
            "type": "string",
            "description": "Access token",
            "name": "Authorization",
            "in": "header",
            "required": true
          },
          {
            "type": "string",
            "default": "123456789",
            "description": "Identificador único de la petición",
            "name": "Request-Id",
            "in": "header",
            "required": true
          },
          {
            "type": "string",
            "default": "123-swagger",
            "description": "Identificador del consumidor",
            "name": "App-Id",
            "in": "header",
            "required": true
          },
          {
            "name": "Body",
            "in": "Body",
            "required": true,
            "schema": {
              "$ref": "#/definitions/CambioContrasena"
            }
          }
        ],
        "responses": {
          "200": {
            "description": "OK"
          },
          "400": {
            "description": "Bad request"
          },
          "401": {
            "description": "Token invalido"
          },
          "403": {
            "description": "Acceso denegado o permisos insuficientes"
          },
          "500": {
            "description": "Internal server error"
          }
        }
      }
    },
    "/usuarios/count": {
      "get": {
        "description": ".",
        "tags": [
          "usuarios"
        ],
        "summary": "Retorna la cantidad de usuarios",
        "operationId": "countUsuarios",
        "parameters": [
          {
            "type": "string",
            "description": "Access token",
            "name": "Authorization",
            "in": "header",
            "required": true
          },
          {
            "type": "string",
            "default": "123456789",
            "description": "Identificador único de la petición",
            "name": "Request-Id",
            "in": "header",
            "required": true
          },
          {
            "type": "string",
            "default": "123-swagger",
            "description": "Identificador del consumidor",
            "name": "App-Id",
            "in": "header",
            "required": true
          }
        ],
        "responses": {
          "200": {
            "description": "OK"
          },
          "401": {
            "description": "Token invalido"
          },
          "403": {
            "description": "Acceso denegado o permisos insuficientes"
          },
          "500": {
            "description": "Internal server error"
          }
        }
      }
    },
    "/usuarios/{id}": {
      "get": {
        "description": ".",
        "tags": [
          "usuarios"
        ],
        "summary": "Retorna un usuario por id",
        "operationId": "getUsuario",
        "parameters": [
          {
            "type": "string",
            "description": "Access token",
            "name": "Authorization",
            "in": "header",
            "required": true
          },
          {
            "type": "string",
            "default": "123456789",
            "description": "Identificador único de la petición",
            "name": "Request-Id",
            "in": "header",
            "required": true
          },
          {
            "type": "string",
            "default": "123-swagger",
            "description": "Identificador del consumidor",
            "name": "App-Id",
            "in": "header",
            "required": true
          },
          {
            "type": "string",
            "description": "Id del usuario",
            "name": "id",
            "in": "path",
            "required": true
          }
        ],
        "responses": {
          "200": {
            "description": "OK",
            "schema": {
              "$ref": "#/definitions/Usuario"
            }
          },
          "401": {
            "description": "Token invalido"
          },
          "403": {
            "description": "Acceso denegado o permisos insuficientes"
          },
          "404": {
            "description": "usuario not found"
          },
          "500": {
            "description": "Internal server error"
          }
        }
      }
    }
  },
  "definitions": {
    "Autenticacion": {
      "description": "Autenticacion (entidad)",
      "type": "object",
      "required": [
        "username",
        "password"
      ],
      "properties": {
        "password": {
          "type": "string",
          "x-go-name": "Password"
        },
        "username": {
          "type": "string",
          "x-go-name": "Username"
        }
      },
      "x-go-package": "gitlab.com/woh-group/woh-backend/api-usuarios/services/autenticacion"
    },
    "CambioContrasena": {
      "description": "CambioContrasena (entidad)",
      "type": "object",
      "properties": {
        "newPassword": {
          "type": "string",
          "x-go-name": "NewPassword"
        },
        "oldPassword": {
          "type": "string",
          "x-go-name": "OldPassword"
        },
        "username": {
          "type": "string",
          "x-go-name": "Username"
        }
      },
      "x-go-package": "gitlab.com/woh-group/woh-backend/api-usuarios/services/usuario"
    },
    "ObjectId": {
      "description": "http://www.mongodb.org/display/DOCS/Object+IDs",
      "type": "string",
      "title": "ObjectId is a unique ID identifying a BSON value. It must be exactly 12 bytes\nlong. MongoDB objects by default have such a property set in their \"_id\"\nproperty.",
      "x-go-package": "gopkg.in/mgo.v2/bson"
    },
    "Rol": {
      "description": "Rol (entidad)",
      "type": "object",
      "properties": {
        "_id": {
          "$ref": "#/definitions/ObjectId"
        },
        "descripcion": {
          "type": "string",
          "x-go-name": "Descripcion"
        },
        "estado": {
          "type": "boolean",
          "x-go-name": "Estado"
        },
        "fechaCreacion": {
          "type": "string",
          "format": "date-time",
          "x-go-name": "FechaCreacion"
        },
        "fechaModificacion": {
          "type": "string",
          "format": "date-time",
          "x-go-name": "FechaModificacion"
        },
        "id": {
          "type": "integer",
          "format": "int64",
          "x-go-name": "Id"
        },
        "usuarioCreacion": {
          "type": "string",
          "x-go-name": "UsuarioCreacion"
        },
        "usuarioModificacion": {
          "type": "string",
          "x-go-name": "UsuarioModificacion"
        }
      },
      "x-go-package": "gitlab.com/woh-group/woh-backend/api-usuarios/services/rol"
    },
    "Usuario": {
      "description": "Usuario (entidad)",
      "type": "object",
      "properties": {
        "_id": {
          "$ref": "#/definitions/ObjectId"
        },
        "estadoId": {
          "type": "integer",
          "format": "int64",
          "x-go-name": "EstadoID"
        },
        "fechaCreacion": {
          "type": "string",
          "format": "date-time",
          "x-go-name": "FechaCreacion"
        },
        "fechaModificacion": {
          "type": "string",
          "format": "date-time",
          "x-go-name": "FechaModificacion"
        },
        "fechaUltimaSession": {
          "type": "string",
          "format": "date-time",
          "x-go-name": "FechaUltimaSession"
        },
        "password": {
          "type": "string",
          "x-go-name": "Password"
        },
        "permisos": {
          "type": "object",
          "additionalProperties": {
            "type": "boolean"
          },
          "x-go-name": "Permisos"
        },
        "rol": {
          "type": "integer",
          "format": "int64",
          "x-go-name": "Rol"
        },
        "username": {
          "type": "string",
          "x-go-name": "Username"
        },
        "usuarioCreacion": {
          "type": "string",
          "x-go-name": "UsuarioCreacion"
        },
        "usuarioModificacion": {
          "type": "string",
          "x-go-name": "UsuarioModificacion"
        }
      },
      "x-go-package": "gitlab.com/woh-group/woh-backend/api-usuarios/services/usuario"
    }
  },
  "securityDefinitions": {
    "bearer": {
      "type": "apiKey",
      "name": "Authorization",
      "in": "header"
    }
  },
  "security": [
    {
      "bearerAuth": [
        "[]"
      ]
    }
  ]
}