module gitlab.com/woh-group/woh-backend

go 1.12

require (
	gitlab.com/woh-group/woh-backend/api-trace v0.0.0-20190625150541-0960d6972d9b // indirect
	gitlab.com/woh-group/woh-backend/api-usuarios v0.0.0-20190625150541-0960d6972d9b // indirect
)
